<?xml version="1.0" encoding="utf-8"?>
<!-- Generator: Adobe Illustrator 15.0.0, SVG Export Plug-In . SVG Version: 6.00 Build 0)  -->
<!DOCTYPE svg PUBLIC "-//W3C//DTD SVG 1.1//EN" "http://www.w3.org/Graphics/SVG/1.1/DTD/svg11.dtd">
<svg version="1.1" id="Layer_1" xmlns="http://www.w3.org/2000/svg" xmlns:xlink="http://www.w3.org/1999/xlink" x="0px" y="0px"
	 width="24px" height="24px" viewBox="0 0 24 24" enable-background="new 0 0 24 24" xml:space="preserve">
<g>
	<path fill="#595959" d="M21.822,18.495c0,2.168-4.955,3.314-9.823,3.314c-4.874,0-9.821-1.146-9.821-3.314
		c0-1.849,3.167-2.699,5.102-3.007l0.234,1.231c-3.094,0.543-4.104,1.394-4.104,1.775c0,0.689,3.327,2.082,8.589,2.082
		c5.336,0,8.583-1.393,8.583-2.082c0-0.382-0.85-1.232-4.023-1.775l0.156-1.231C20.121,16.104,21.822,17.102,21.822,18.495
		L21.822,18.495z M12,19.185L12,19.185c0,0-4.953-7.714-4.953-12.04C7.046,4.434,9.289,2.19,12,2.19
		c2.706,0,4.948,2.243,4.948,4.954C16.947,11.384,12,19.185,12,19.185L12,19.185z M12,8.845L12,8.845c0.924,0,1.627-0.775,1.627-1.7
		c0-0.85-0.703-1.626-1.627-1.626c-0.931,0-1.626,0.776-1.626,1.626C10.374,8.069,11.069,8.845,12,8.845L12,8.845z"/>
</g>
</svg>
