<?xml version="1.0" encoding="utf-8"?>
<!-- Generator: Adobe Illustrator 15.0.0, SVG Export Plug-In  -->
<!DOCTYPE svg PUBLIC "-//W3C//DTD SVG 1.1//EN" "http://www.w3.org/Graphics/SVG/1.1/DTD/svg11.dtd" [
	<!ENTITY ns_flows "http://ns.adobe.com/Flows/1.0/">
]>
<svg version="1.1"
	 xmlns="http://www.w3.org/2000/svg" xmlns:xlink="http://www.w3.org/1999/xlink" xmlns:a="http://ns.adobe.com/AdobeSVGViewerExtensions/3.0/"
	 x="0px" y="0px" width="99px" height="102px" viewBox="-3.5 -5.2 99 102" enable-background="new -3.5 -5.2 99 102"
	 xml:space="preserve">
<defs>
</defs>
<circle fill="none" stroke="#43464F" stroke-width="3" stroke-miterlimit="10" cx="45.5" cy="45.5" r="44"/>
<path display="none" fill="#43464F" d="M61.4,22.5c0-2.601-2.101-4.601-4.601-4.601H34c-2.6,0-4.6,2.101-4.6,4.601V68
	c0,2.6,2.1,4.6,4.6,4.6h22.7c2.6,0,4.6-2.1,4.6-4.6V22.5H61.4z M59.7,68c0,1.6-1.3,2.899-2.9,2.899H34c-1.6,0-2.9-1.3-2.9-2.899
	V22.5c0-1.601,1.3-2.9,2.9-2.9h22.7c1.6,0,2.9,1.3,2.9,2.9V68H59.7z"/>
<path display="none" fill="#43464F" d="M45.4,63.3c-1.5,0-2.7,1.2-2.7,2.7s1.2,2.699,2.7,2.699S48.1,67.5,48.1,66
	S46.9,63.3,45.4,63.3z M45.4,67.1c-0.6,0-1.1-0.5-1.1-1.1c0-0.601,0.5-1.101,1.1-1.101S46.5,65.399,46.5,66
	C46.5,66.6,46,67.1,45.4,67.1z"/>
<path display="none" fill="#43464F" d="M56.799,25.399H34c-0.5,0-0.8,0.4-0.8,0.8V60.3c0,0.5,0.4,0.8,0.8,0.8h22.7
	c0.5,0,0.801-0.4,0.801-0.8v-34C57.6,25.8,57.2,25.399,56.799,25.399z M55.9,59.5h-21V27.1H56v32.4H55.9z"/>
<path display="none" fill="#43464F" d="M41.6,23.3h7.6c0.5,0,0.801-0.4,0.801-0.8c0-0.5-0.4-0.801-0.801-0.801h-7.6
	c-0.5,0-0.8,0.4-0.8,0.801C40.8,23,41.1,23.3,41.6,23.3z"/>
<path id="path-1_3_" fill="none" stroke="#464646" stroke-width="2" stroke-miterlimit="10" d="M58.859,29.508l9.731-1
	c0,0,5.123,0,5.123,5.122v25.614c0,5.121-5.123,6.121-5.123,6.121h-46.1c0,0-5.123-1-5.123-6.121V33.629
	c0-5.122,5.123-5.122,5.123-5.122l12.292,1l2.403-4.007c0.371-0.614,1.248-1.116,1.961-1.116h15.348c0.694,0,1.59,0.499,1.962,1.116
	L58.859,29.508L58.859,29.508z M46.821,57.682c6.366,0,11.524-5.163,11.524-11.525c0-6.367-5.158-11.527-11.524-11.527
	c-6.365,0-11.525,5.16-11.525,11.527C35.296,52.519,40.456,57.682,46.821,57.682z M60.908,39.752c1.415,0,2.561-1.147,2.561-2.561
	c0-1.415-1.146-2.562-2.561-2.562c-1.416,0-2.563,1.147-2.563,2.562C58.345,38.605,59.492,39.752,60.908,39.752z M28.18,25.666
	c-0.313,0-0.568,0.227-0.568,0.512v1.537c0,0.282,0.255,0.513,0.568,0.513h3.986c0.313,0,0.568-0.228,0.568-0.513v-1.537
	c0-0.283-0.255-0.512-0.568-0.512H28.18z"/>
<path id="path-1_2_" fill="none" stroke="#464646" stroke-width="2" stroke-miterlimit="10" d="M58.859,29.508l9.731-1
	c0,0,5.123,0,5.123,5.122v25.614c0,5.121-5.123,6.121-5.123,6.121h-46.1c0,0-5.123-1-5.123-6.121V33.629
	c0-5.122,5.123-5.122,5.123-5.122l12.292,1l2.403-4.007c0.371-0.614,1.248-1.116,1.961-1.116h15.348c0.694,0,1.59,0.499,1.962,1.116
	L58.859,29.508L58.859,29.508z M60.908,39.752c1.415,0,2.561-1.147,2.561-2.561c0-1.415-1.146-2.562-2.561-2.562
	c-1.416,0-2.563,1.147-2.563,2.562C58.345,38.605,59.492,39.752,60.908,39.752z M28.18,25.666c-0.313,0-0.568,0.227-0.568,0.512
	v1.537c0,0.282,0.255,0.513,0.568,0.513h3.986c0.313,0,0.568-0.228,0.568-0.513v-1.537c0-0.283-0.255-0.512-0.568-0.512H28.18z"/>
</svg>
