<?xml version="1.0" encoding="utf-8"?>
<!-- Generator: Adobe Illustrator 15.0.0, SVG Export Plug-In  -->
<!DOCTYPE svg PUBLIC "-//W3C//DTD SVG 1.1//EN" "http://www.w3.org/Graphics/SVG/1.1/DTD/svg11.dtd" [
	<!ENTITY ns_flows "http://ns.adobe.com/Flows/1.0/">
]>
<svg version="1.1"
	 xmlns="http://www.w3.org/2000/svg" xmlns:xlink="http://www.w3.org/1999/xlink" xmlns:a="http://ns.adobe.com/AdobeSVGViewerExtensions/3.0/"
	 x="0px" y="0px" width="24px" height="24px" viewBox="-1.873 -3.75 24 24" enable-background="new -1.873 -3.75 24 24"
	 xml:space="preserve">
<defs>
</defs>
<path fill="#565656" d="M20.231,1.965c-0.028-0.035-0.076-0.046-0.117-0.027c-0.605,0.269-1.242,0.461-1.898,0.576
	c0.696-0.523,1.215-1.25,1.481-2.081c0.013-0.04,0-0.083-0.033-0.11c-0.033-0.025-0.078-0.029-0.114-0.008
	c-0.784,0.466-1.634,0.794-2.526,0.976C16.231,0.47,15.127,0,13.985,0C11.661,0,9.77,1.891,9.77,4.215
	c0,0.28,0.027,0.56,0.081,0.829C6.632,4.846,3.621,3.3,1.575,0.79C1.554,0.764,1.522,0.75,1.489,0.753
	C1.456,0.756,1.426,0.774,1.41,0.803c-0.374,0.64-0.571,1.374-0.571,2.119c0,1.292,0.587,2.5,1.587,3.297
	C1.911,6.158,1.409,5.997,0.955,5.745c-0.031-0.018-0.068-0.018-0.099,0c-0.03,0.018-0.049,0.05-0.05,0.085v0.055
	c0,1.855,1.223,3.485,2.962,4.026C3.31,9.985,2.834,9.979,2.367,9.889C2.333,9.883,2.296,9.896,2.273,9.922
	s-0.031,0.063-0.021,0.097c0.522,1.629,1.972,2.771,3.659,2.913c-1.408,1.031-3.072,1.574-4.83,1.574c-0.324,0-0.65-0.02-0.97-0.057
	c-0.045-0.005-0.09,0.022-0.107,0.066c-0.015,0.044,0.001,0.093,0.041,0.118c1.903,1.22,4.103,1.865,6.362,1.865
	c7.391,0,11.807-6.004,11.807-11.808c0-0.162-0.003-0.322-0.01-0.482c0.797-0.583,1.481-1.297,2.034-2.124
	C20.263,2.048,20.26,2,20.231,1.965"/>
</svg>
